{
    "id": "1",
    "version": 2,
    "avatar": "https://raw.githubusercontent.com/martinmicunda/employee-scheduling-ui/master/src/images/me.jpg",
    "firstName": "Martin",
    "lastName": "Micunda",
    "email": "martinmicunda@hotmail.com",
    "language": "en",
    "position": "5",
    "role": "admin",
    "status": "active",
    "phoneNumber": "+353767889",
    "address": "12 Smithfield",
    "city": "Dublin",
    "zipCode": "7",
    "bankName": "AIB",
    "bankAccountName": "Martin Micunda",
    "bankAccountNumber": "123456890YU",
    "hourlyRate": 8,
    "currencyCode": "EUR",
    "currencySymbol": "€",
    "locations": ["1", "5"],
    "supervisorLocations": [],
    "personalNo": "OP1234",
    "identityNo": "ID12345",
    "note": "Lorem Ipsum is simply dummy text of the printing and typesetting industry"
}
